{
  "periodInSecs": 10,
  "numberOfIterations": 5,
  "house": {
    "familyName": "Smiths",
    "floors": [
      {
        "name": "Basement",
        "number": -1,
        "rooms": [
          {
            "name": "Cellars",
            "eventors": [
              {
                "type": "equipment",
                "name": "Ski",
                "equipmentType": "SKI",
                "color": "green"
              },
              {
                "type": "equipment",
                "name": "Bicycle",
                "equipmentType": "BICYCLE",
                "color": "white"
              }
            ]
          }
        ]
      },
      {
        "name": "Ground floor",
        "number": 0,
        "rooms": [
          {
            "name": "Garden",
            "eventors": [
              {
                "type": "customDevice",
                "name": "Pool",
                "purposes": [
                  "HUMAN_ENTERTAINMENT",
                  "SPORT"
                ],
                "supplyType": "ENERGY",
                "consumptionPerSec": 150
              },
              {
                "type": "customDevice",
                "name": "Swing",
                "purposes": [
                  "HUMAN_ENTERTAINMENT"
                ],
                "supplyType": "ENERGY",
                "consumptionPerSec": 0
              },
              {
                "type": "equipment",
                "name": "Family car",
                "equipmentType": "CAR",
                "color": "black"
              },
              {
                "type": "pet",
                "name": "Asta",
                "familyStatus": "DOG",
                "isMaleNotFemale": false,
                "age": "3",
                "energy": 100,
                "maxEnergy": 100,
                "amusement": 100,
                "playfulness": 30,
                "funPerSec": 8
              }
            ]
          },
          {
            "name": "Kitchen",
            "eventors": [
              {
                "type": "customDevice",
                "name": "Washing machine",
                "purposes": [
                  "WORK"
                ],
                "supplyType": "ENERGY",
                "consumptionPerSec": 150
              },
              {
                "type": "customDevice",
                "name": "Fridge",
                "purposes": [],
                "supplyType": "ENERGY",
                "consumptionPerSec": 100
              }
            ]
          },
          {
            "name": "Grandparents' bedroom",
            "eventors": [
              {
                "type": "cdPlayer",
                "name": "Grandparents' player"
              }
            ]
          }
        ]
      },
      {
        "name": "First floor",
        "number": 1,
        "rooms": [
          {
            "name": "Living room",
            "eventors": [
              {
                "type": "person",
                "funPerSec": 0,
                "familyStatus": "GRANDPARENT",
                "isMaleNotFemale": true,
                "amusement": 0,
                "name": "Bob",
                "maxEnergy": 100,
                "age": 50,
                "energy": 100,
                "secsToRepair": 10,
                "playfulnessInSecs": 50
              },
              {
                "type": "person",
                "funPerSec": 0,
                "familyStatus": "GRANDPARENT",
                "isMaleNotFemale": false,
                "amusement": 0,
                "name": "Jarmila",
                "maxEnergy": 100,
                "age": 48,
                "energy": 100,
                "secsToRepair": 10,
                "playfulnessInSecs": 50
              },
              {
                "type": "tv",
                "name": "television"
              },
              {
                "type": "cdPlayer",
                "name": "Bob's player"
              }
            ]
          }
        ]
      },
      {
        "name": "Second floor",
        "number": 2,
        "rooms": [
          {
            "name": "Parents' bedroom",
            "eventors": [
              {
                "type": "person",
                "funPerSec": 0,
                "familyStatus": "PARENT",
                "isMaleNotFemale": true,
                "amusement": 0,
                "name": "Rob",
                "maxEnergy": 100,
                "age": 27,
                "energy": 100,
                "secsToRepair": 10,
                "playfulnessInSecs": 50
              },
              {
                "type": "person",
                "funPerSec": 0,
                "familyStatus": "PARENT",
                "isMaleNotFemale": true,
                "amusement": 0,
                "name": "Angelina",
                "maxEnergy": 100,
                "age": 26,
                "energy": 100,
                "secsToRepair": 10,
                "playfulnessInSecs": 50
              },
              {
                "type": "pc",
                "name": "Parents' player"
              }
            ]
          },
          {
            "name": "David's room",
            "eventors": [
              {
                "type": "pc",
                "name": "David's computer"
              },
              {
                "type": "customDevice",
                "name": "David's alarm clock",
                "purposes": [],
                "supplyType": "ENERGY",
                "consumptionPerSec": 3
              },
              {
                "type": "customDevice",
                "name": "David's gameboy",
                "purposes": [
                  "HUMAN_ENTERTAINMENT"
                ],
                "supplyType": "ENERGY",
                "consumptionPerSec": 5
              },
              {
                "type": "customDevice",
                "name": "David's cellphone",
                "purposes": [
                  "HUMAN_ENTERTAINMENT"
                ],
                "supplyType": "ENERGY",
                "consumptionPerSec": 4
              },
              {
                "type": "person",
                "name": "David",
                "funPerSec": 5,
                "familyStatus": "CHILD",
                "isMaleNotFemale": true,
                "amusement": 0,
                "maxEnergy": 120,
                "age": 14,
                "energy": 100,
                "secsToRepair": 20,
                "playfulnessInSecs": 100
              }
            ]
          },
          {
            "name": "Cae's room",
            "eventors": [
              {
                "type": "pc",
                "name": "Cae's computer"
              },
              {
                "type": "cdPlayer",
                "name": "Cae's player"
              },
              {
                "type": "customDevice",
                "name": "piano",
                "purposes": [
                  "HUMAN_ENTERTAINMENT"
                ],
                "supplyType": "ENERGY",
                "consumptionPerSec": 10
              },
              {
                "type": "customDevice",
                "name": "Nintendo Wii",
                "purposes": [
                  "HUMAN_ENTERTAINMENT"
                ],
                "supplyType": "ENERGY",
                "consumptionPerSec": 100
              },
              {
                "type": "person",
                "name": "Cae",
                "funPerSec": 6,
                "familyStatus": "CHILD",
                "isMaleNotFemale": false,
                "amusement": 15,
                "maxEnergy": 110,
                "age": 13,
                "energy": 110,
                "secsToRepair": 50,
                "playfulnessInSecs": 150
              }
            ]
          }
        ]
      }
    ]
  }
}